{
    "products":
    [
        {
            "id":1,
            "name":"Anna",
            "price" :"15",
            "image":"https://via.placeholder.com/150/24f355",
            "colour": "red",
            "star" : 0 
        },
        {
            "id":2,
            "name":"Silence",
            "price" :"15",
            "image":"https://via.placeholder.com/150/d32776",
            "colour": "red"
        },
        {
            "id":3,
            "name":"La Case De Papel",
            "price" :"15",
            "image":"https://via.placeholder.com/150/f66b97",
            "colour": "red"
        }
]}
